{
    "_links": {
        "self": {
            "href": "http:\/\/default\/things-know?_format=hal_json"
        },
        "type": {
            "href": "http:\/\/drupal.org\/rest\/type\/node\/page"
        },
        "http:\/\/drupal.org\/rest\/relation\/node\/page\/revision_uid": [
            {
                "href": "http:\/\/default\/user\/1?_format=hal_json"
            }
        ],
        "http:\/\/drupal.org\/rest\/relation\/node\/page\/uid": [
            {
                "href": "http:\/\/default\/user\/1?_format=hal_json",
                "lang": "en"
            }
        ]
    },
    "nid": [
        {
            "value": 17
        }
    ],
    "uuid": [
        {
            "value": "17258c0b-2331-4f3a-a679-2ebcd25d93c4"
        }
    ],
    "vid": [
        {
            "value": 23
        }
    ],
    "langcode": [
        {
            "value": "en",
            "lang": "en"
        }
    ],
    "type": [
        {
            "target_id": "page"
        }
    ],
    "revision_timestamp": [
        {
            "value": "2019-12-18T00:23:41+00:00",
            "format": "Y-m-d\\TH:i:sP"
        }
    ],
    "_embedded": {
        "http:\/\/drupal.org\/rest\/relation\/node\/page\/revision_uid": [
            {
                "_links": {
                    "self": {
                        "href": "http:\/\/default\/user\/1?_format=hal_json"
                    },
                    "type": {
                        "href": "http:\/\/drupal.org\/rest\/type\/user\/user"
                    }
                },
                "uuid": [
                    {
                        "value": "0249bae4-2454-4d73-bb6c-af404eb716c4"
                    }
                ]
            }
        ],
        "http:\/\/drupal.org\/rest\/relation\/node\/page\/uid": [
            {
                "_links": {
                    "self": {
                        "href": "http:\/\/default\/user\/1?_format=hal_json"
                    },
                    "type": {
                        "href": "http:\/\/drupal.org\/rest\/type\/user\/user"
                    }
                },
                "uuid": [
                    {
                        "value": "0249bae4-2454-4d73-bb6c-af404eb716c4"
                    }
                ],
                "lang": "en"
            }
        ]
    },
    "status": [
        {
            "value": true,
            "lang": "en"
        }
    ],
    "title": [
        {
            "value": "Things to know",
            "lang": "en"
        }
    ],
    "created": [
        {
            "value": "2019-12-18T00:23:25+00:00",
            "lang": "en",
            "format": "Y-m-d\\TH:i:sP"
        }
    ],
    "changed": [
        {
            "value": "2019-12-18T00:23:41+00:00",
            "lang": "en",
            "format": "Y-m-d\\TH:i:sP"
        }
    ],
    "promote": [
        {
            "value": false,
            "lang": "en"
        }
    ],
    "sticky": [
        {
            "value": false,
            "lang": "en"
        }
    ],
    "default_langcode": [
        {
            "value": true,
            "lang": "en"
        }
    ],
    "revision_translation_affected": [
        {
            "value": true,
            "lang": "en"
        }
    ],
    "moderation_state": [
        {
            "value": "published",
            "lang": "en"
        }
    ],
    "path": [
        {
            "alias": "\/things-know",
            "pid": 29,
            "langcode": "en",
            "lang": "en"
        }
    ],
    "field_rich_text": [
        {
            "value": "<p><strong>Things to know<\/strong><\/p>\r\n\r\n<p>Part D may cover these:<\/p>\r\n\r\n<ul>\r\n\t<li>Insulin<\/li>\r\n\t<li>Certain medical supplies used to inject insulin, like syringes, gauze, and alcohol swabs<\/li>\r\n<\/ul>\r\n\r\n<p>However, if you use an external insulin pump, insulin and the pump may be covered as durable medical equipment (DME) under Part B. If you live in certain areas of the country, you may have to use specific pump suppliers for Medicare to pay for an insulin pump.<\/p>\r\n",
            "format": "rich_text",
            "processed": "<strong>Things to know<\/strong>\n\nPart D may cover these:\n\n<ul><li>Insulin<\/li>\n\t<li>Certain medical supplies used to inject insulin, like syringes, gauze, and alcohol swabs<\/li>\n<\/ul>\n\nHowever, if you use an external insulin pump, insulin and the pump may be covered as durable medical equipment (DME) under Part B. If you live in certain areas of the country, you may have to use specific pump suppliers for Medicare to pay for an insulin pump."
        }
    ]
}