{
    "_links": {
        "self": {
            "href": "http:\/\/default\/insulin?_format=hal_json"
        },
        "type": {
            "href": "http:\/\/drupal.org\/rest\/type\/node\/page"
        },
        "http:\/\/drupal.org\/rest\/relation\/node\/page\/revision_uid": [
            {
                "href": "http:\/\/default\/user\/1?_format=hal_json"
            }
        ],
        "http:\/\/drupal.org\/rest\/relation\/node\/page\/uid": [
            {
                "href": "http:\/\/default\/user\/1?_format=hal_json",
                "lang": "en"
            }
        ]
    },
    "nid": [
        {
            "value": 15
        }
    ],
    "uuid": [
        {
            "value": "978fe930-223c-4bde-9851-c9bf959964bd"
        }
    ],
    "vid": [
        {
            "value": 21
        }
    ],
    "langcode": [
        {
            "value": "en",
            "lang": "en"
        }
    ],
    "type": [
        {
            "target_id": "page"
        }
    ],
    "revision_timestamp": [
        {
            "value": "2019-12-18T00:21:18+00:00",
            "format": "Y-m-d\\TH:i:sP"
        }
    ],
    "_embedded": {
        "http:\/\/drupal.org\/rest\/relation\/node\/page\/revision_uid": [
            {
                "_links": {
                    "self": {
                        "href": "http:\/\/default\/user\/1?_format=hal_json"
                    },
                    "type": {
                        "href": "http:\/\/drupal.org\/rest\/type\/user\/user"
                    }
                },
                "uuid": [
                    {
                        "value": "0249bae4-2454-4d73-bb6c-af404eb716c4"
                    }
                ]
            }
        ],
        "http:\/\/drupal.org\/rest\/relation\/node\/page\/uid": [
            {
                "_links": {
                    "self": {
                        "href": "http:\/\/default\/user\/1?_format=hal_json"
                    },
                    "type": {
                        "href": "http:\/\/drupal.org\/rest\/type\/user\/user"
                    }
                },
                "uuid": [
                    {
                        "value": "0249bae4-2454-4d73-bb6c-af404eb716c4"
                    }
                ],
                "lang": "en"
            }
        ]
    },
    "status": [
        {
            "value": true,
            "lang": "en"
        }
    ],
    "title": [
        {
            "value": "Insulin",
            "lang": "en"
        }
    ],
    "created": [
        {
            "value": "2019-12-18T00:20:52+00:00",
            "lang": "en",
            "format": "Y-m-d\\TH:i:sP"
        }
    ],
    "changed": [
        {
            "value": "2019-12-18T00:21:18+00:00",
            "lang": "en",
            "format": "Y-m-d\\TH:i:sP"
        }
    ],
    "promote": [
        {
            "value": false,
            "lang": "en"
        }
    ],
    "sticky": [
        {
            "value": false,
            "lang": "en"
        }
    ],
    "default_langcode": [
        {
            "value": true,
            "lang": "en"
        }
    ],
    "revision_translation_affected": [
        {
            "value": true,
            "lang": "en"
        }
    ],
    "moderation_state": [
        {
            "value": "published",
            "lang": "en"
        }
    ],
    "path": [
        {
            "alias": "\/insulin",
            "pid": 18,
            "langcode": "en",
            "lang": "en"
        }
    ],
    "field_rich_text": [
        {
            "value": "<p>Medicare drug plans cover injectable insulin not used with an insulin infusion pump and inhaled insulin.&nbsp;<\/p>\r\n\r\n<p>Anti-diabetic drugs Blood sugar (glucose) that isn\u2019t controlled by insulin is maintained by anti-diabetic drugs. Medicare drug plans can cover anti-diabetic drugs like:<\/p>\r\n\r\n<ul>\r\n\t<li>Sulfonylureas (like Glipizide, and Glyburide)&nbsp;<\/li>\r\n\t<li>Biguanides (like metformin)&nbsp;<\/li>\r\n\t<li>Thiazolidinediones, like Actos\u00ae (Pioglitazone), Avandia\u00ae (Rosiglitazone), and Rezulin\u00ae (Troglitazone)&nbsp;<\/li>\r\n\t<li>Meglitinides, which are a class of anti-diabetic drug including Starlix\u00ae (Nateglinide) and Prandin\u00ae (Repaglinide)&nbsp;<\/li>\r\n\t<li>Alpha glucosidase inhibitors (like Precose\u00ae)<\/li>\r\n<\/ul>\r\n",
            "format": "rich_text",
            "processed": "Medicare drug plans cover injectable insulin not used with an insulin infusion pump and inhaled insulin.\u00a0\n\nAnti-diabetic drugs Blood sugar (glucose) that isn\u2019t controlled by insulin is maintained by anti-diabetic drugs. Medicare drug plans can cover anti-diabetic drugs like:\n\n<ul><li>Sulfonylureas (like Glipizide, and Glyburide)\u00a0<\/li>\n\t<li>Biguanides (like metformin)\u00a0<\/li>\n\t<li>Thiazolidinediones, like Actos\u00ae (Pioglitazone), Avandia\u00ae (Rosiglitazone), and Rezulin\u00ae (Troglitazone)\u00a0<\/li>\n\t<li>Meglitinides, which are a class of anti-diabetic drug including Starlix\u00ae (Nateglinide) and Prandin\u00ae (Repaglinide)\u00a0<\/li>\n\t<li>Alpha glucosidase inhibitors (like Precose\u00ae)<\/li>\n<\/ul>"
        }
    ]
}