{
    "_links": {
        "self": {
            "href": "http:\/\/default\/medicare-part-d-medicare-prescription-drug-coverage?_format=hal_json"
        },
        "type": {
            "href": "http:\/\/drupal.org\/rest\/type\/node\/page"
        },
        "http:\/\/drupal.org\/rest\/relation\/node\/page\/revision_uid": [
            {
                "href": "http:\/\/default\/user\/1?_format=hal_json"
            }
        ],
        "http:\/\/drupal.org\/rest\/relation\/node\/page\/uid": [
            {
                "href": "http:\/\/default\/user\/1?_format=hal_json",
                "lang": "en"
            }
        ]
    },
    "nid": [
        {
            "value": 5
        }
    ],
    "uuid": [
        {
            "value": "aca97363-50c0-4598-8f87-369b9a005e1b"
        }
    ],
    "vid": [
        {
            "value": 20
        }
    ],
    "langcode": [
        {
            "value": "en",
            "lang": "en"
        }
    ],
    "type": [
        {
            "target_id": "page"
        }
    ],
    "revision_timestamp": [
        {
            "value": "2019-12-18T00:19:31+00:00",
            "format": "Y-m-d\\TH:i:sP"
        }
    ],
    "_embedded": {
        "http:\/\/drupal.org\/rest\/relation\/node\/page\/revision_uid": [
            {
                "_links": {
                    "self": {
                        "href": "http:\/\/default\/user\/1?_format=hal_json"
                    },
                    "type": {
                        "href": "http:\/\/drupal.org\/rest\/type\/user\/user"
                    }
                },
                "uuid": [
                    {
                        "value": "0249bae4-2454-4d73-bb6c-af404eb716c4"
                    }
                ]
            }
        ],
        "http:\/\/drupal.org\/rest\/relation\/node\/page\/uid": [
            {
                "_links": {
                    "self": {
                        "href": "http:\/\/default\/user\/1?_format=hal_json"
                    },
                    "type": {
                        "href": "http:\/\/drupal.org\/rest\/type\/user\/user"
                    }
                },
                "uuid": [
                    {
                        "value": "0249bae4-2454-4d73-bb6c-af404eb716c4"
                    }
                ],
                "lang": "en"
            }
        ]
    },
    "status": [
        {
            "value": true,
            "lang": "en"
        }
    ],
    "title": [
        {
            "value": "Medicare Part D (Medicare prescription drug coverage)",
            "lang": "en"
        }
    ],
    "created": [
        {
            "value": "2019-12-13T05:03:36+00:00",
            "lang": "en",
            "format": "Y-m-d\\TH:i:sP"
        }
    ],
    "changed": [
        {
            "value": "2019-12-18T00:19:31+00:00",
            "lang": "en",
            "format": "Y-m-d\\TH:i:sP"
        }
    ],
    "promote": [
        {
            "value": false,
            "lang": "en"
        }
    ],
    "sticky": [
        {
            "value": false,
            "lang": "en"
        }
    ],
    "default_langcode": [
        {
            "value": true,
            "lang": "en"
        }
    ],
    "revision_translation_affected": [
        {
            "value": true,
            "lang": "en"
        }
    ],
    "moderation_state": [
        {
            "value": "published",
            "lang": "en"
        }
    ],
    "path": [
        {
            "alias": "\/medicare-part-d-medicare-prescription-drug-coverage",
            "pid": 24,
            "langcode": "en",
            "lang": "en"
        }
    ],
    "field_rich_text": [
        {
            "value": "<p>For people with Medicare who have or are at risk for diabetes. To get Medicare drug coverage, you must join a Medicare drug plan. These diabetes drugs and supplies are covered under Medicare drug plans:&nbsp;<\/p>\r\n\r\n<ul>\r\n\t<li>Insulin.&nbsp;<\/li>\r\n\t<li>Anti-diabetic drugs.&nbsp;<\/li>\r\n\t<li>Certain diabetes supplies.<\/li>\r\n<\/ul>\r\n",
            "format": "rich_text",
            "processed": "For people with Medicare who have or are at risk for diabetes. To get Medicare drug coverage, you must join a Medicare drug plan. These diabetes drugs and supplies are covered under Medicare drug plans:\u00a0\n\n<ul><li>Insulin.\u00a0<\/li>\n\t<li>Anti-diabetic drugs.\u00a0<\/li>\n\t<li>Certain diabetes supplies.<\/li>\n<\/ul>"
        }
    ]
}