{
    "_links": {
        "self": {
            "href": "http:\/\/default\/your-insulin-costs?_format=hal_json"
        },
        "type": {
            "href": "http:\/\/drupal.org\/rest\/type\/node\/page"
        },
        "http:\/\/drupal.org\/rest\/relation\/node\/page\/revision_uid": [
            {
                "href": "http:\/\/default\/user\/1?_format=hal_json"
            }
        ],
        "http:\/\/drupal.org\/rest\/relation\/node\/page\/uid": [
            {
                "href": "http:\/\/default\/user\/1?_format=hal_json",
                "lang": "en"
            }
        ]
    },
    "nid": [
        {
            "value": 18
        }
    ],
    "uuid": [
        {
            "value": "d76569e3-e157-4c37-96e1-25333d27f321"
        }
    ],
    "vid": [
        {
            "value": 24
        }
    ],
    "langcode": [
        {
            "value": "en",
            "lang": "en"
        }
    ],
    "type": [
        {
            "target_id": "page"
        }
    ],
    "revision_timestamp": [
        {
            "value": "2019-12-18T00:24:31+00:00",
            "format": "Y-m-d\\TH:i:sP"
        }
    ],
    "_embedded": {
        "http:\/\/drupal.org\/rest\/relation\/node\/page\/revision_uid": [
            {
                "_links": {
                    "self": {
                        "href": "http:\/\/default\/user\/1?_format=hal_json"
                    },
                    "type": {
                        "href": "http:\/\/drupal.org\/rest\/type\/user\/user"
                    }
                },
                "uuid": [
                    {
                        "value": "0249bae4-2454-4d73-bb6c-af404eb716c4"
                    }
                ]
            }
        ],
        "http:\/\/drupal.org\/rest\/relation\/node\/page\/uid": [
            {
                "_links": {
                    "self": {
                        "href": "http:\/\/default\/user\/1?_format=hal_json"
                    },
                    "type": {
                        "href": "http:\/\/drupal.org\/rest\/type\/user\/user"
                    }
                },
                "uuid": [
                    {
                        "value": "0249bae4-2454-4d73-bb6c-af404eb716c4"
                    }
                ],
                "lang": "en"
            }
        ]
    },
    "status": [
        {
            "value": true,
            "lang": "en"
        }
    ],
    "title": [
        {
            "value": "Your Insulin costs",
            "lang": "en"
        }
    ],
    "created": [
        {
            "value": "2019-12-18T00:24:03+00:00",
            "lang": "en",
            "format": "Y-m-d\\TH:i:sP"
        }
    ],
    "changed": [
        {
            "value": "2019-12-18T00:24:31+00:00",
            "lang": "en",
            "format": "Y-m-d\\TH:i:sP"
        }
    ],
    "promote": [
        {
            "value": false,
            "lang": "en"
        }
    ],
    "sticky": [
        {
            "value": false,
            "lang": "en"
        }
    ],
    "default_langcode": [
        {
            "value": true,
            "lang": "en"
        }
    ],
    "revision_translation_affected": [
        {
            "value": true,
            "lang": "en"
        }
    ],
    "moderation_state": [
        {
            "value": "published",
            "lang": "en"
        }
    ],
    "path": [
        {
            "alias": "\/your-insulin-costs",
            "pid": 23,
            "langcode": "en",
            "lang": "en"
        }
    ],
    "field_rich_text": [
        {
            "value": "<p><strong>Medicare (Part D)<\/strong><\/p>\r\n\r\n<ul>\r\n\t<li>You may be covered for insulin, Insulin pens and certain medical supplies used to inject insulin, like syringes, needles, alcohol swabs and gauze<\/li>\r\n<\/ul>\r\n\r\n<p><strong>Original Medicare (Part A)<\/strong><\/p>\r\n\r\n<ul>\r\n\t<li>You pay 100% for insulin (unless used with an insulin pump, then you pay 20% of the Medicare-approved amount, and the Part B deductible applies).&nbsp;<\/li>\r\n\t<li>You pay 100% for syringes and needles, unless you have Medicare prescription drug coverage (Part D).&nbsp;<\/li>\r\n<\/ul>\r\n\r\n<p><strong>In Medicare Part B (Medical Insurance)&nbsp;<\/strong><\/p>\r\n\r\n<ul>\r\n\t<li>You are not covered for Insulin, Insulin pens and medical supplies used to inject insulin, like syringes, needles, alcohol swabs and gauze<\/li>\r\n\t<li>However, if you use an external insulin pump, insulin and the pump may be covered as durable medical equipment (DME) under Part B. If you live in certain areas of the country, you may have to use specific pump suppliers for Medicare to pay for an insulin pump.<\/li>\r\n<\/ul>\r\n",
            "format": "rich_text",
            "processed": "<strong>Medicare (Part D)<\/strong>\n\n<ul><li>You may be covered for insulin, Insulin pens and certain medical supplies used to inject insulin, like syringes, needles, alcohol swabs and gauze<\/li>\n<\/ul><strong>Original Medicare (Part A)<\/strong>\n\n<ul><li>You pay 100% for insulin (unless used with an insulin pump, then you pay 20% of the Medicare-approved amount, and the Part B deductible applies).\u00a0<\/li>\n\t<li>You pay 100% for syringes and needles, unless you have Medicare prescription drug coverage (Part D).\u00a0<\/li>\n<\/ul><strong>In Medicare Part B (Medical Insurance)\u00a0<\/strong>\n\n<ul><li>You are not covered for Insulin, Insulin pens and medical supplies used to inject insulin, like syringes, needles, alcohol swabs and gauze<\/li>\n\t<li>However, if you use an external insulin pump, insulin and the pump may be covered as durable medical equipment (DME) under Part B. If you live in certain areas of the country, you may have to use specific pump suppliers for Medicare to pay for an insulin pump.<\/li>\n<\/ul>"
        }
    ]
}