{
    "_links": {
        "self": {
            "href": "http:\/\/default\/node\/1?_format=hal_json"
        },
        "type": {
            "href": "http:\/\/drupal.org\/rest\/type\/node\/basic_page"
        },
        "http:\/\/drupal.org\/rest\/relation\/node\/basic_page\/revision_uid": [
            {
                "href": "http:\/\/default\/user\/1?_format=hal_json"
            }
        ],
        "http:\/\/drupal.org\/rest\/relation\/node\/basic_page\/uid": [
            {
                "href": "http:\/\/default\/user\/1?_format=hal_json",
                "lang": "en"
            }
        ],
        "http:\/\/drupal.org\/rest\/relation\/node\/basic_page\/field_questions_and_answers": [
            {
                "href": ""
            },
            {
                "href": ""
            },
            {
                "href": ""
            },
            {
                "href": ""
            }
        ]
    },
    "nid": [
        {
            "value": 1
        }
    ],
    "uuid": [
        {
            "value": "cbf91f24-4865-45da-8307-87609cb5051c"
        }
    ],
    "vid": [
        {
            "value": 1
        }
    ],
    "langcode": [
        {
            "value": "en",
            "lang": "en"
        }
    ],
    "type": [
        {
            "target_id": "basic_page"
        }
    ],
    "revision_timestamp": [
        {
            "value": "2019-12-13T14:44:46+00:00",
            "format": "Y-m-d\\TH:i:sP"
        }
    ],
    "_embedded": {
        "http:\/\/drupal.org\/rest\/relation\/node\/basic_page\/revision_uid": [
            {
                "_links": {
                    "self": {
                        "href": "http:\/\/default\/user\/1?_format=hal_json"
                    },
                    "type": {
                        "href": "http:\/\/drupal.org\/rest\/type\/user\/user"
                    }
                },
                "uuid": [
                    {
                        "value": "fa96e0d7-3092-41f8-bea6-d71be5129da1"
                    }
                ]
            }
        ],
        "http:\/\/drupal.org\/rest\/relation\/node\/basic_page\/uid": [
            {
                "_links": {
                    "self": {
                        "href": "http:\/\/default\/user\/1?_format=hal_json"
                    },
                    "type": {
                        "href": "http:\/\/drupal.org\/rest\/type\/user\/user"
                    }
                },
                "uuid": [
                    {
                        "value": "fa96e0d7-3092-41f8-bea6-d71be5129da1"
                    }
                ],
                "lang": "en"
            }
        ],
        "http:\/\/drupal.org\/rest\/relation\/node\/basic_page\/field_questions_and_answers": [
            {
                "_links": {
                    "self": {
                        "href": ""
                    },
                    "type": {
                        "href": "http:\/\/drupal.org\/rest\/type\/paragraph\/q_a"
                    }
                },
                "uuid": [
                    {
                        "value": "08cb46c3-fe9f-4f95-854b-31cbe8f63967"
                    }
                ],
                "target_revision_id": "1"
            },
            {
                "_links": {
                    "self": {
                        "href": ""
                    },
                    "type": {
                        "href": "http:\/\/drupal.org\/rest\/type\/paragraph\/q_a"
                    }
                },
                "uuid": [
                    {
                        "value": "a0af066a-d9f1-4929-8e33-b1a157d7c4ff"
                    }
                ],
                "target_revision_id": "2"
            },
            {
                "_links": {
                    "self": {
                        "href": ""
                    },
                    "type": {
                        "href": "http:\/\/drupal.org\/rest\/type\/paragraph\/q_a"
                    }
                },
                "uuid": [
                    {
                        "value": "bd020e86-603f-4f76-8dd9-457c2d325931"
                    }
                ],
                "target_revision_id": "3"
            },
            {
                "_links": {
                    "self": {
                        "href": ""
                    },
                    "type": {
                        "href": "http:\/\/drupal.org\/rest\/type\/paragraph\/q_a"
                    }
                },
                "uuid": [
                    {
                        "value": "85e9384a-4ee4-486f-8bd0-4169de35f5a0"
                    }
                ],
                "target_revision_id": "4"
            }
        ]
    },
    "status": [
        {
            "value": true,
            "lang": "en"
        }
    ],
    "title": [
        {
            "value": "When you have other insurance",
            "lang": "en"
        }
    ],
    "created": [
        {
            "value": "2019-12-13T14:42:09+00:00",
            "lang": "en",
            "format": "Y-m-d\\TH:i:sP"
        }
    ],
    "changed": [
        {
            "value": "2019-12-13T14:44:46+00:00",
            "lang": "en",
            "format": "Y-m-d\\TH:i:sP"
        }
    ],
    "promote": [
        {
            "value": false,
            "lang": "en"
        }
    ],
    "sticky": [
        {
            "value": false,
            "lang": "en"
        }
    ],
    "default_langcode": [
        {
            "value": true,
            "lang": "en"
        }
    ],
    "revision_translation_affected": [
        {
            "value": true,
            "lang": "en"
        }
    ],
    "path": [
        {
            "alias": null,
            "pid": null,
            "langcode": "en",
            "lang": "en"
        }
    ]
}